<svg width="81" height="48" viewBox="0 0 81 48" fill="none" xmlns="http://www.w3.org/2000/svg">
<path d="M52.7398 12.7063C53.7902 12.074 54.1518 10.6684 53.5452 9.57345C53.4011 9.31191 53.2088 9.08277 52.9795 8.89929C52.7501 8.7158 52.4883 8.5816 52.209 8.50444C52.0222 8.45207 51.8296 8.42555 51.6362 8.42557C51.255 8.42557 50.8785 8.52951 50.5395 8.73391C50.2888 8.88363 50.069 9.08383 49.8929 9.32292C49.7168 9.56201 49.5878 9.83524 49.5135 10.1268C49.438 10.4176 49.4185 10.7211 49.4563 11.0199C49.4941 11.3186 49.5883 11.6065 49.7335 11.8668C50.3402 12.9616 51.6898 13.3392 52.7397 12.7063H52.7398ZM54.1052 15.0519L54.6355 16.0093L52.0593 17.5591L51.4172 14.103C50.3715 14.0268 49.3779 13.4348 48.8152 12.4194C48.3794 11.6335 48.2642 10.717 48.489 9.83984C48.5993 9.40801 48.7904 9.00331 49.0514 8.64916C49.3123 8.29502 49.6379 7.99846 50.0094 7.77667C50.3799 7.55211 50.7893 7.40645 51.214 7.34812C51.6387 7.28979 52.0702 7.31993 52.4837 7.43681C52.8976 7.55097 53.2857 7.74975 53.6255 8.02164C53.9654 8.29354 54.2503 8.63316 54.4637 9.02084C55.3625 10.6435 54.8275 12.7267 53.27 13.6636C53.0218 13.8132 52.7558 13.9279 52.4788 14.0047L52.8172 15.8263L54.1052 15.0519V15.0519ZM50.3985 21.7475C50.1486 21.596 49.8724 21.4977 49.5859 21.4584C49.2994 21.419 49.0083 21.4393 48.7294 21.5181C48.45 21.5951 48.1881 21.7293 47.9587 21.9128C47.7294 22.0963 47.5371 22.3255 47.393 22.5871C46.9784 23.3354 47.025 24.2242 47.4259 24.9173L47.8819 25.4651L47.8714 25.475C47.972 25.5645 48.0797 25.6491 48.1985 25.7205V25.7198C48.4485 25.8713 48.7247 25.9696 49.0112 26.009C49.2977 26.0484 49.5889 26.0281 49.8679 25.9493C50.1471 25.8721 50.409 25.7379 50.6383 25.5544C50.8677 25.3709 51.0599 25.1418 51.204 24.8803C51.8107 23.7853 51.449 22.3799 50.3985 21.7475ZM52.1225 25.433C51.9091 25.8207 51.6242 26.1603 51.2843 26.4321C50.9445 26.704 50.5564 26.9028 50.1425 27.0171C49.729 27.1338 49.2975 27.1639 48.8729 27.1056C48.4482 27.0474 48.0388 26.9019 47.6682 26.6776V26.6772C47.4494 26.5449 47.2463 26.3861 47.0632 26.204L46.3017 26.8922L47.5892 27.666L47.0589 28.6237L44.4812 27.0735L46.4205 25.322C45.9145 24.3226 45.8934 23.0829 46.4745 22.0343C46.9099 21.2479 47.613 20.6858 48.4545 20.4508C48.868 20.3338 49.2995 20.3035 49.7242 20.3618C50.1489 20.4201 50.5584 20.5657 50.9288 20.7903C51.3003 21.0121 51.6258 21.3087 51.8866 21.663C52.1475 22.0172 52.3383 22.4221 52.4482 22.854C52.5602 23.285 52.589 23.7349 52.5331 24.1777C52.4772 24.6204 52.3377 25.0471 52.1225 25.433V25.433ZM40.5748 27.8009C40.5748 26.5357 39.5869 25.5065 38.3736 25.5065C37.1603 25.5065 36.1731 26.5357 36.1731 27.8009C36.1731 29.0654 37.1604 30.0946 38.3736 30.0946C39.5869 30.0946 40.5748 29.0654 40.5748 27.8009ZM41.6354 27.8009C41.6354 29.675 40.1723 31.2 38.3738 31.2C36.5754 31.2 35.1125 29.675 35.1125 27.8009C35.1125 27.5371 35.1438 27.2819 35.199 27.0354L33.832 26.5418V28.2071H32.7713V24.9892L35.6051 26.0128C36.1809 25.0472 37.2049 24.4011 38.3736 24.4011C40.1723 24.4011 41.6352 25.9259 41.6352 27.8009H41.6354ZM31.305 18.927C31.161 18.6655 30.9688 18.4363 30.7395 18.2528C30.5102 18.0693 30.2484 17.9351 29.9692 17.858C29.6901 17.7793 29.3989 17.7591 29.1123 17.7985C28.8257 17.8379 28.5494 17.9361 28.2993 18.0875C28.0487 18.2372 27.8291 18.4374 27.6532 18.6765C27.4772 18.9156 27.3484 19.1888 27.2743 19.4803C27.1986 19.7711 27.179 20.0747 27.2168 20.3734C27.2545 20.6721 27.3489 20.96 27.4943 21.2202C27.6383 21.4818 27.8305 21.711 28.0598 21.8945C28.2891 22.078 28.5509 22.2121 28.8302 22.2892C29.3965 22.4478 29.99 22.3672 30.5002 22.0599C31.5505 21.4275 31.9121 20.022 31.305 18.927ZM31.0303 23.0171C30.5365 23.3162 29.9758 23.4739 29.405 23.4742C29.1183 23.474 28.8329 23.4346 28.556 23.357C28.142 23.2428 27.7539 23.0441 27.4139 22.7722C27.074 22.5003 26.789 22.1607 26.5755 21.773C26.3602 21.3871 26.2206 20.9604 26.1647 20.5176C26.1088 20.0748 26.1377 19.6249 26.2499 19.1939C26.3597 18.762 26.5506 18.3571 26.8114 18.0029C27.0722 17.6486 27.3978 17.352 27.7692 17.1302V17.1297C27.9208 17.0401 28.079 16.963 28.2422 16.8992L27.9133 15.132L26.6312 15.9054L26.0999 14.9487L28.6712 13.3977L29.2803 16.6763C29.605 16.6643 29.9295 16.7027 30.2433 16.7902C30.6573 16.9044 31.0455 17.1032 31.3855 17.3752C31.7254 17.6471 32.0104 17.9867 32.224 18.3744C33.1228 19.9971 32.5873 22.0803 31.0303 23.0171V23.0171ZM32.0606 5.88691C31.7274 5.68583 31.3493 5.58002 30.9645 5.58013C30.2032 5.58013 29.4618 5.99137 29.0545 6.72645C28.9093 6.98688 28.815 7.27486 28.7773 7.57366C28.7395 7.87246 28.759 8.17613 28.8345 8.467C28.9089 8.75843 29.0379 9.03155 29.214 9.27054C29.3901 9.50954 29.6098 9.70967 29.8605 9.85934C30.1104 10.011 30.3866 10.1094 30.6732 10.1488C30.9597 10.1881 31.2509 10.1677 31.5298 10.0886C31.809 10.0117 32.0709 9.87764 32.3002 9.69426C32.5295 9.51088 32.7217 9.28181 32.8656 9.02032C33.4728 7.92483 33.1111 6.51927 32.0606 5.88691V5.88691ZM33.7606 6.13623C34.3423 7.15928 34.3943 8.47136 33.7845 9.57311C33.5709 9.96057 33.286 10.3 32.9461 10.5717C32.6063 10.8435 32.2183 11.0422 31.8045 11.1564C31.391 11.2729 30.9595 11.3028 30.5349 11.2445C30.1103 11.1863 29.7009 11.0409 29.3302 10.8169C28.9588 10.595 28.6332 10.2983 28.3723 9.94411C28.1113 9.58988 27.9202 9.18512 27.81 8.75324C27.698 8.32217 27.6692 7.87214 27.7252 7.42933C27.7812 6.98651 27.9209 6.55974 28.1362 6.17384C29.0355 4.55046 31.034 3.99228 32.591 4.92967C32.767 5.03587 32.9276 5.15775 33.0771 5.29059L34.4305 4.06575L33.1466 3.29132L33.678 2.33408L36.2466 3.8845L33.7606 6.13623V6.13623ZM44.4764 3.39979C44.4764 2.13508 43.4891 1.10541 42.2752 1.10541C41.0619 1.10541 40.0741 2.13508 40.0741 3.39979C40.0741 4.66485 41.0619 5.69348 42.2752 5.69348C43.4891 5.69348 44.4764 4.66485 44.4764 3.39979V3.39979ZM47.8775 5.96091L45.1589 4.98382C44.6111 6.06206 43.5246 6.79888 42.2752 6.79888C40.4766 6.79888 39.0136 5.27405 39.0136 3.39979C39.0136 1.52553 40.4766 0 42.2754 0C44.0736 0 45.5371 1.52553 45.5371 3.39979C45.536 3.57892 45.5211 3.75766 45.4926 3.9343L46.8172 4.41066V2.9929H47.8777V5.96091H47.8775ZM42.6352 11.4914L41.6637 11.0474L37.9276 19.9175L38.8989 20.3618L42.6352 11.4914V11.4914ZM46.6669 15.7229L43.6052 12.6064L42.8649 13.3972L45.0406 15.6124L42.6077 17.5154L43.2444 18.3991L46.6669 15.7231V15.7229ZM37.0091 17.9769L33.9478 14.8607L37.3703 12.184L38.0069 13.0683L35.5736 14.9708L37.7494 17.1859L37.0091 17.9769V17.9769Z" fill="#171321"/>
<path d="M0.899902 47.8615L4.01815 39.7385H5.17573L8.49891 47.8615H7.27487L6.32776 45.4013H2.93258L2.04086 47.8615H0.899902ZM3.24274 44.5259H5.99544L5.14803 42.2763C4.88956 41.5929 4.69756 41.0314 4.57202 40.5918C4.46863 41.1127 4.32278 41.6298 4.13446 42.1433L3.24274 44.5259Z" fill="black"/>
<path d="M10.5812 47.8615L8.42668 39.7385H9.52887L10.764 45.0633C10.8969 45.6211 11.0114 46.1752 11.1074 46.7256C11.3142 45.8575 11.436 45.357 11.4729 45.224L13.0182 39.7385H14.3142L15.4774 43.8499C15.7691 44.8694 15.9795 45.828 16.1088 46.7256C16.2122 46.2121 16.3469 45.623 16.5131 44.9581L17.787 39.7385H18.867L16.6405 47.8615H15.6047L13.8933 41.6723C13.7493 41.1552 13.6644 40.8375 13.6385 40.7193C13.5536 41.0924 13.4742 41.41 13.4004 41.6723L11.6779 47.8615H10.5812Z" fill="black"/>
<path d="M19.7363 45.2517L20.7499 45.1631C20.7979 45.5694 20.9087 45.9037 21.0822 46.166C21.2595 46.4245 21.5327 46.6351 21.902 46.7976C22.2712 46.9565 22.6866 47.0359 23.1481 47.0359C23.558 47.0359 23.9199 46.9749 24.2337 46.853C24.5476 46.7311 24.7802 46.5649 24.9316 46.3544C25.0867 46.1401 25.1642 45.9074 25.1642 45.6562C25.1642 45.4013 25.0904 45.1797 24.9427 44.9913C24.795 44.7992 24.5513 44.6385 24.2116 44.5092C23.9937 44.4243 23.5118 44.2931 22.766 44.1158C22.0201 43.9348 21.4976 43.7649 21.1985 43.6061C20.8108 43.4029 20.521 43.1517 20.329 42.8525C20.1407 42.5496 20.0465 42.2116 20.0465 41.8385C20.0465 41.4285 20.1628 41.0462 20.3954 40.6916C20.6281 40.3333 20.9678 40.0617 21.4146 39.8771C21.8613 39.6924 22.358 39.6 22.9044 39.6C23.5063 39.6 24.0362 39.6979 24.494 39.8937C24.9556 40.0858 25.3101 40.3702 25.5574 40.747C25.8048 41.1238 25.9378 41.5504 25.9562 42.0269L24.926 42.1045C24.8707 41.591 24.6823 41.2032 24.3611 40.9409C24.0436 40.6786 23.5728 40.5475 22.9488 40.5475C22.2989 40.5475 21.8244 40.6676 21.5253 40.9077C21.2299 41.1441 21.0822 41.4303 21.0822 41.7665C21.0822 42.0583 21.1875 42.2984 21.3979 42.4868C21.6047 42.6752 22.1438 42.8691 23.0152 43.0686C23.8903 43.2644 24.4903 43.4362 24.8153 43.5839C25.2879 43.8019 25.6368 44.0789 25.8621 44.415C26.0873 44.7475 26.1999 45.1317 26.1999 45.5676C26.1999 45.9997 26.0762 46.4079 25.8288 46.7921C25.5814 47.1726 25.2251 47.4699 24.7599 47.6842C24.2983 47.8947 23.7777 48 23.198 48C22.4632 48 21.8466 47.8929 21.3481 47.6786C20.8533 47.4644 20.4638 47.143 20.1794 46.7145C19.8988 46.2823 19.7511 45.7947 19.7363 45.2517Z" fill="black"/>
<path d="M37.0718 45.0135L38.1463 45.285C37.9211 46.1678 37.5149 46.842 36.9278 47.3074C36.3444 47.7691 35.6299 48 34.7844 48C33.9093 48 33.1966 47.8227 32.6465 47.4681C32.1 47.1098 31.6827 46.5926 31.3947 45.9166C31.1104 45.2406 30.9682 44.5148 30.9682 43.7391C30.9682 42.8931 31.1289 42.1562 31.4501 41.5282C31.775 40.8966 32.2347 40.4182 32.8292 40.0931C33.4274 39.7644 34.0847 39.6 34.801 39.6C35.6133 39.6 36.2964 39.8069 36.8503 40.2206C37.4041 40.6343 37.79 41.2161 38.0078 41.966L36.95 42.2153C36.7617 41.6243 36.4884 41.1939 36.1303 40.9243C35.7721 40.6546 35.3216 40.5198 34.7788 40.5198C34.1548 40.5198 33.6323 40.6694 33.2114 40.9686C32.7941 41.2678 32.5006 41.6705 32.3308 42.1765C32.1609 42.6789 32.076 43.1979 32.076 43.7335C32.076 44.4243 32.1757 45.0282 32.3751 45.5454C32.5781 46.0588 32.892 46.443 33.3166 46.6979C33.7413 46.9528 34.201 47.0802 34.6957 47.0802C35.2976 47.0802 35.8072 46.9066 36.2244 46.5594C36.6417 46.2121 36.9241 45.6968 37.0718 45.0135Z" fill="black"/>
<path d="M39.204 44.9193C39.204 43.8296 39.5068 43.0224 40.1123 42.4979C40.6182 42.062 41.2348 41.8441 41.9622 41.8441C42.7709 41.8441 43.4318 42.11 43.945 42.642C44.4583 43.1702 44.7149 43.9016 44.7149 44.8362C44.7149 45.5934 44.6004 46.19 44.3715 46.6259C44.1463 47.0581 43.8158 47.3942 43.3801 47.6343C42.9481 47.8744 42.4755 47.9945 41.9622 47.9945C41.1388 47.9945 40.4723 47.7303 39.9628 47.2021C39.4569 46.6739 39.204 45.9129 39.204 44.9193ZM40.2286 44.9193C40.2286 45.6728 40.3929 46.238 40.7216 46.6148C41.0502 46.9879 41.4637 47.1744 41.9622 47.1744C42.457 47.1744 42.8687 46.986 43.1973 46.6092C43.526 46.2325 43.6903 45.6581 43.6903 44.886C43.6903 44.1583 43.5241 43.6079 43.1918 43.2348C42.8632 42.8581 42.4533 42.6697 41.9622 42.6697C41.4637 42.6697 41.0502 42.8562 40.7216 43.2293C40.3929 43.6024 40.2286 44.1657 40.2286 44.9193Z" fill="black"/>
<path d="M49.9321 47.8615V47.119C49.5591 47.7026 49.0108 47.9945 48.2871 47.9945C47.8182 47.9945 47.3862 47.8652 46.9911 47.6066C46.5997 47.348 46.295 46.9879 46.0772 46.5261C45.863 46.0607 45.7559 45.5269 45.7559 44.9248C45.7559 44.3375 45.8538 43.8055 46.0495 43.329C46.2452 42.8488 46.5387 42.4813 46.9301 42.2264C47.3215 41.9715 47.7591 41.8441 48.2428 41.8441C48.5973 41.8441 48.913 41.9198 49.1899 42.0712C49.4668 42.219 49.6921 42.4129 49.8656 42.653V39.7385H50.857V47.8615H49.9321ZM46.7806 44.9248C46.7806 45.6784 46.9394 46.2417 47.2569 46.6148C47.5745 46.9879 47.9492 47.1744 48.3813 47.1744C48.817 47.1744 49.1862 46.9971 49.489 46.6425C49.7955 46.2842 49.9487 45.7393 49.9487 45.0079C49.9487 44.2026 49.7936 43.6116 49.4834 43.2348C49.1733 42.8581 48.7911 42.6697 48.337 42.6697C47.8939 42.6697 47.5228 42.8507 47.2237 43.2127C46.9283 43.5747 46.7806 44.1454 46.7806 44.9248Z" fill="black"/>
<path d="M56.6835 45.9665L57.7136 46.0939C57.5512 46.696 57.2502 47.1633 56.8108 47.4958C56.3714 47.8282 55.8102 47.9945 55.1271 47.9945C54.2668 47.9945 53.5837 47.7303 53.0778 47.2021C52.5756 46.6702 52.3245 45.9259 52.3245 44.9691C52.3245 43.9792 52.5793 43.2108 53.0889 42.6641C53.5984 42.1174 54.2594 41.8441 55.0717 41.8441C55.8582 41.8441 56.5007 42.1119 56.9992 42.6475C57.4976 43.1831 57.7469 43.9367 57.7469 44.9082C57.7469 44.9673 57.745 45.0559 57.7413 45.1741H53.3547C53.3917 45.8206 53.5744 46.3156 53.9031 46.6591C54.2317 47.0026 54.6415 47.1744 55.1326 47.1744C55.4982 47.1744 55.8102 47.0784 56.0687 46.8863C56.3271 46.6942 56.5321 46.3876 56.6835 45.9665ZM53.4101 44.3541H56.6945C56.6502 43.8591 56.5247 43.4879 56.3179 43.2404C56.0004 42.8562 55.5886 42.6641 55.0828 42.6641C54.6249 42.6641 54.2391 42.8174 53.9252 43.124C53.615 43.4306 53.4434 43.8406 53.4101 44.3541Z" fill="black"/>
<path d="M58.9596 45.2517L59.9732 45.1631C60.0212 45.5694 60.1319 45.9037 60.3055 46.166C60.4827 46.4245 60.756 46.6351 61.1252 46.7976C61.4945 46.9565 61.9098 47.0359 62.3714 47.0359C62.7813 47.0359 63.1431 46.9749 63.457 46.853C63.7708 46.7311 64.0035 46.5649 64.1548 46.3544C64.3099 46.1401 64.3875 45.9074 64.3875 45.6562C64.3875 45.4013 64.3136 45.1797 64.1659 44.9913C64.0182 44.7992 63.7745 44.6385 63.4348 44.5092C63.217 44.4243 62.7351 44.2931 61.9892 44.1158C61.2434 43.9348 60.7209 43.7649 60.4218 43.6061C60.0341 43.4029 59.7442 43.1517 59.5522 42.8525C59.3639 42.5496 59.2698 42.2116 59.2698 41.8385C59.2698 41.4285 59.3861 41.0462 59.6187 40.6916C59.8513 40.3333 60.191 40.0617 60.6378 39.8771C61.0846 39.6924 61.5812 39.6 62.1277 39.6C62.7296 39.6 63.2594 39.6979 63.7173 39.8937C64.1788 40.0858 64.5333 40.3702 64.7807 40.747C65.0281 41.1238 65.161 41.5504 65.1795 42.0269L64.1493 42.1045C64.0939 41.591 63.9056 41.2032 63.5844 40.9409C63.2668 40.6786 62.796 40.5475 62.172 40.5475C61.5221 40.5475 61.0477 40.6676 60.7486 40.9077C60.4532 41.1441 60.3055 41.4303 60.3055 41.7665C60.3055 42.0583 60.4107 42.2984 60.6212 42.4868C60.828 42.6752 61.3671 42.8691 62.2385 43.0686C63.1136 43.2644 63.7136 43.4362 64.0385 43.5839C64.5112 43.8019 64.8601 44.0789 65.0853 44.415C65.3106 44.7475 65.4232 45.1317 65.4232 45.5676C65.4232 45.9997 65.2995 46.4079 65.0521 46.7921C64.8047 47.1726 64.4484 47.4699 63.9831 47.6842C63.5216 47.8947 63.001 48 62.4212 48C61.6865 48 61.0698 47.8929 60.5713 47.6786C60.0766 47.4644 59.687 47.143 59.4027 46.7145C59.1221 46.2823 58.9744 45.7947 58.9596 45.2517Z" fill="black"/>
<path d="M69.1671 46.9694L69.3111 47.8504C69.0305 47.9095 68.7794 47.9391 68.5578 47.9391C68.196 47.9391 67.9154 47.8818 67.716 47.7673C67.5166 47.6528 67.3763 47.5032 67.295 47.3185C67.2138 47.1301 67.1732 46.7367 67.1732 46.1383V42.7528H66.4421V41.9771H67.1732V40.5198L68.1646 39.9214V41.9771H69.1671V42.7528H68.1646V46.1937C68.1646 46.4781 68.1812 46.661 68.2144 46.7422C68.2514 46.8235 68.3086 46.8881 68.3861 46.9362C68.4674 46.9842 68.5818 47.0082 68.7295 47.0082C68.8403 47.0082 68.9862 46.9953 69.1671 46.9694Z" fill="black"/>
<path d="M74.2126 47.1356C73.8433 47.4496 73.487 47.6712 73.1436 47.8005C72.8039 47.9298 72.4383 47.9945 72.047 47.9945C71.4008 47.9945 70.9041 47.8375 70.5571 47.5235C70.21 47.2058 70.0364 46.8013 70.0364 46.31C70.0364 46.0219 70.101 45.7596 70.2303 45.5232C70.3632 45.2831 70.5349 45.091 70.7454 44.947C70.9595 44.8029 71.1995 44.6939 71.4654 44.6201C71.6611 44.5683 71.9565 44.5185 72.3516 44.4705C73.1565 44.3744 73.7492 44.2599 74.1295 44.1269C74.1332 43.9902 74.135 43.9034 74.135 43.8665C74.135 43.4602 74.0409 43.1739 73.8525 43.0077C73.5978 42.7823 73.2193 42.6697 72.7171 42.6697C72.2482 42.6697 71.9011 42.7528 71.6759 42.919C71.4543 43.0815 71.29 43.3715 71.1829 43.7889L70.2081 43.6559C70.2967 43.2385 70.4426 42.9024 70.6457 42.6475C70.8488 42.3889 71.1423 42.1913 71.5263 42.0546C71.9103 41.9143 72.3553 41.8441 72.8611 41.8441C73.3633 41.8441 73.7713 41.9032 74.0852 42.0214C74.399 42.1396 74.6298 42.2892 74.7775 42.4702C74.9252 42.6475 75.0286 42.8728 75.0877 43.1462C75.1209 43.3161 75.1375 43.6227 75.1375 44.066V45.3958C75.1375 46.323 75.1578 46.9103 75.1984 47.1578C75.2427 47.4016 75.3277 47.6362 75.4532 47.8615H74.4119C74.3086 47.6546 74.2421 47.4127 74.2126 47.1356ZM74.1295 44.9082C73.7676 45.0559 73.2248 45.1815 72.5011 45.285C72.0913 45.3441 71.8014 45.4106 71.6316 45.4844C71.4617 45.5583 71.3306 45.6673 71.2383 45.8114C71.146 45.9517 71.0998 46.1087 71.0998 46.2823C71.0998 46.5483 71.1995 46.7699 71.3989 46.9472C71.602 47.1245 71.8974 47.2132 72.2851 47.2132C72.6691 47.2132 73.0107 47.1301 73.3098 46.9639C73.6088 46.7939 73.8285 46.5631 73.9689 46.2712C74.0759 46.0459 74.1295 45.7135 74.1295 45.2739V44.9082Z" fill="black"/>
<path d="M76.9041 47.8615V41.9771H77.8014V42.8691C78.0303 42.4517 78.2408 42.1765 78.4328 42.0435C78.6285 41.9106 78.8426 41.8441 79.0753 41.8441C79.4113 41.8441 79.7528 41.9512 80.0999 42.1654L79.7565 43.0908C79.5128 42.9467 79.2691 42.8747 79.0254 42.8747C78.8076 42.8747 78.6119 42.9412 78.4383 43.0741C78.2648 43.2034 78.1411 43.3844 78.0672 43.6172C77.9564 43.9718 77.9011 44.3596 77.9011 44.7807V47.8615H76.9041Z" fill="black"/>
</svg>
