<svg width="93" height="32" viewBox="0 0 93 32" fill="none" xmlns="http://www.w3.org/2000/svg">
<path fill-rule="evenodd" clip-rule="evenodd" d="M56.0519 11.0773H55.4228C55.3196 11.6724 55.1988 13.3181 54.2049 14.3335C53.3115 15.2432 52.5755 15.3237 51.4167 15.3237H48.1906V8.26894H49.6325C51.5903 8.26894 51.8596 9.69072 52.1691 11.2383H52.7302V4.85165H52.1691C51.8558 6.4458 51.6507 7.62977 49.3507 7.62977H48.1906V1.11729H51.3236C54.298 1.11729 54.5974 3.24114 54.9548 4.56478H55.5813V0.413949H43.4648V1.11729H45.7497V15.3225H43.4635V16.0271H56.0519V11.0773ZM29.8409 15.3237C30.6877 15.3237 31.2979 16.4397 34.0698 16.4397C34.8027 16.4461 35.5295 16.3052 36.207 16.0255C36.8846 15.7459 37.4991 15.3331 38.0142 14.8116C38.9327 13.8906 39.4889 12.6437 39.4889 11.3314C39.4889 5.61664 30.5304 7.29635 30.5304 3.2877C30.5304 1.51866 32.0805 0.670626 33.569 0.670626C35.8803 0.670626 37.0228 2.57304 37.4191 4.59623H38.0482V0.415206H37.4518C37.3763 0.899616 37.2178 1.02292 37.014 1.02292C36.5107 1.02292 35.4626 0 33.569 0C31.1557 0 29.0281 1.6709 29.0281 4.46664C29.0281 8.85023 34.4221 8.53568 36.6378 10.5035C37.214 11.0131 37.5147 11.7064 37.5147 12.4814C37.5307 13.2374 37.2749 13.9741 36.7938 14.5575C36.1131 15.4068 35.1078 15.7679 34.0698 15.7679C31.0199 15.7679 29.9781 13.868 29.3729 11.0773H28.6846V16.0258H29.2772C29.3716 15.408 29.6862 15.3237 29.8409 15.3237ZM44.1216 27.7535C45.3961 29.0533 45.688 31.0412 45.8428 32H46.6581C46.8154 31.0412 47.106 29.0533 48.3781 27.7535C49.7495 26.3569 51.355 26.2538 52.6686 26.2538H92.2505V25.3906H52.6371C50.507 25.3906 49.1947 25.6649 47.7515 27.1345C46.5562 28.355 46.3096 29.8132 46.2505 30.2423C46.1926 29.8132 45.9447 28.355 44.7482 27.1345C43.3037 25.6649 41.9914 25.3906 39.8625 25.3906H0V26.2538H39.8286C41.1497 26.2538 42.7501 26.3569 44.1203 27.7535H44.1216ZM15.8748 15.3237H13.6226V2.26603L22.2967 16.1516H23.0479V1.11603H25.3013V0.415206H20.0407V1.11729H22.2967V11.5894L15.3124 0.415206H10.613V1.11729H12.869V15.3225H10.613V16.0258H15.8736L15.8748 15.3237ZM6.98306 15.3237H4.72835V1.11729H6.98306V0.415206H0V1.11729H2.28491V15.3225H0V16.0258H6.98306V15.3237ZM87.9928 14.1095C86.9233 15.2017 85.5732 15.4508 83.9539 15.4508C83.4102 15.4375 82.8672 15.4052 82.3258 15.3539V1.08709C82.5737 1.07451 83.2644 1.05438 83.8885 1.05438C85.5896 1.05438 87.3763 1.62812 88.4935 3.13042C89.5253 4.51445 89.9027 6.59301 89.9027 8.42999C89.9027 11.0609 89.0333 13.0476 87.994 14.1095H87.9928ZM89.7782 2.14021C88.0242 0.801479 86.0916 0.352297 83.8897 0.352297C82.6114 0.352297 81.3192 0.415206 80.0384 0.415206H77.6277V1.11855H79.8811V15.3237H77.6277V16.0271H79.7251C81.9949 16.0271 83.0845 16.1227 83.9841 16.1227C86.5836 16.1227 88.5162 15.7477 90.4035 13.8227C91.1178 13.0992 91.682 12.2416 92.0638 11.2993C92.4455 10.357 92.6373 9.34851 92.628 8.33185C92.628 5.8557 91.663 3.5796 89.7782 2.14147V2.14021ZM63.8503 9.8958L66.1025 3.67019L68.3597 9.8958H63.8503ZM72.9597 15.3237L67.4173 0.128339H66.6372L61.1263 15.3237H59.2767V16.0258H64.0692V15.3237H61.9378L63.5986 10.5979H68.6076L70.2986 15.3237H68.1722V16.0258H74.8093V15.3237H72.9597Z" fill="white"/>
</svg>
