<svg width="163" height="45" viewBox="0 0 163 45" fill="none" xmlns="http://www.w3.org/2000/svg">
<g clip-path="url(#clip0_990_7478)">
<path d="M64.8065 19.4335L54.4244 13.5514V9.14137H52.618V12.5292L44.9873 8.20923L25.168 19.4207L26.0294 21.0085L29.8865 18.8678V36.3085C30.8508 36.3085 31.4873 36.3085 31.603 36.3085V17.9999L44.9551 10.2857L58.1915 17.6271C58.1915 17.6271 58.1915 42.5185 58.1915 44.9999H59.998V18.6942L63.8551 20.9892L64.8065 19.4335Z" fill="#28438D"/>
<path d="M2.7064 26.1771V24.7307H29.0635V22.8021H0.777832V28.0736H3.57426C3.57426 28.0736 3.57426 43.5021 3.57426 44.9807H5.50283C5.50283 44.7557 5.50283 28.0736 5.50283 28.0736H29.115C29.115 27.6557 29.115 27 29.115 26.145L2.7064 26.1771Z" fill="#FBAE17"/>
<path d="M31.963 1.59429H31.6351V0H18.8551V4.38429H14.1623V8.10643C9.89562 11.7026 6.82022 16.5085 5.34229 21.8893H15.8787V6.10071H18.8551V21.8893H20.3401H20.5716V1.71643H29.9059V15.57L44.9873 7.07143L51.6023 10.8129V9.81C49.039 7.20415 45.9819 5.13543 42.6098 3.72477C39.2377 2.31412 35.6183 1.58985 31.963 1.59429Z" fill="#FFDF98"/>
<path d="M95.194 9.64287C94.9924 9.63429 94.7914 9.67082 94.6057 9.74978C94.4199 9.82874 94.2542 9.94815 94.1205 10.0993C93.839 10.4495 93.697 10.8914 93.7219 11.34C93.6857 11.8017 93.8233 12.2602 94.1076 12.6257C94.2423 12.7765 94.4096 12.8948 94.5966 12.9716C94.7837 13.0484 94.9858 13.0818 95.1876 13.0693C95.5257 13.0439 95.8588 12.9726 96.1776 12.8572V13.275C95.8366 13.392 95.4772 13.4464 95.1169 13.4357C94.8551 13.4526 94.5927 13.4119 94.3483 13.3164C94.104 13.2208 93.8836 13.0729 93.7026 12.8829C93.3485 12.4372 93.1721 11.876 93.2076 11.3079C93.1977 10.9194 93.2792 10.5341 93.4455 10.1829C93.5971 9.87213 93.8391 9.61445 94.1397 9.44358C94.4638 9.26345 94.8298 9.1725 95.2005 9.18001C95.5931 9.1693 95.9828 9.25076 96.3383 9.41787L96.139 9.8293C95.8416 9.69827 95.5189 9.63461 95.194 9.64287Z" fill="#28438D"/>
<path d="M101.231 11.3272C101.263 11.892 101.084 12.4487 100.729 12.8893C100.552 13.0806 100.334 13.2304 100.092 13.3282C99.8495 13.426 99.5888 13.4693 99.328 13.455C99.0657 13.4707 98.8032 13.4287 98.5589 13.3321C98.3145 13.2355 98.0943 13.0865 97.9137 12.8957C97.5607 12.4494 97.3845 11.8887 97.4187 11.3207C97.3823 10.7534 97.5613 10.1932 97.9201 9.75215C98.1002 9.56065 98.3203 9.41124 98.5648 9.31456C98.8093 9.21789 99.072 9.17634 99.3344 9.19287C99.5943 9.17778 99.8544 9.22072 100.096 9.31856C100.337 9.41641 100.553 9.56671 100.729 9.75858C101.085 10.2011 101.264 10.7602 101.231 11.3272ZM97.9266 11.3272C97.8924 11.7846 98.0198 12.2396 98.2866 12.6129C98.4224 12.7513 98.5845 12.8612 98.7633 12.9362C98.9421 13.0113 99.1341 13.0499 99.328 13.0499C99.5219 13.0499 99.7139 13.0113 99.8927 12.9362C100.072 12.8612 100.234 12.7513 100.369 12.6129C100.628 12.2363 100.751 11.7828 100.717 11.3272C100.751 10.8716 100.628 10.418 100.369 10.0414C100.241 9.89616 100.081 9.78193 99.9013 9.70734C99.7221 9.63274 99.5283 9.59971 99.3344 9.61073C99.1379 9.59851 98.9413 9.63157 98.7596 9.70737C98.5779 9.78316 98.4161 9.89965 98.2866 10.0479C98.0188 10.4182 97.8912 10.8715 97.9266 11.3272Z" fill="#28438D"/>
<path d="M106.207 11.3272C106.239 11.8921 106.06 12.4488 105.705 12.8893C105.529 13.0805 105.312 13.2303 105.071 13.3281C104.83 13.4259 104.57 13.4692 104.31 13.4551C104.048 13.4707 103.785 13.4287 103.541 13.3321C103.297 13.2355 103.076 13.0866 102.896 12.8958C102.54 12.4509 102.363 11.8891 102.401 11.3208C102.362 10.7542 102.539 10.1938 102.896 9.7522C103.073 9.56564 103.288 9.41919 103.526 9.32272C103.765 9.22624 104.021 9.18198 104.278 9.19291C104.537 9.17879 104.796 9.2222 105.036 9.32002C105.276 9.41783 105.491 9.56762 105.667 9.75863C106.036 10.1955 106.229 10.7552 106.207 11.3272ZM102.909 11.3272C102.875 11.7847 103.002 12.2397 103.269 12.6129C103.398 12.7602 103.558 12.8762 103.739 12.952C103.919 13.0277 104.115 13.0613 104.31 13.0501C104.504 13.0603 104.699 13.0262 104.878 12.9505C105.057 12.8748 105.217 12.7594 105.345 12.6129C105.61 12.2388 105.735 11.7839 105.699 11.3272C105.733 10.8716 105.61 10.418 105.351 10.0415C105.215 9.90387 105.053 9.79463 104.874 9.72008C104.696 9.64553 104.504 9.60715 104.31 9.60715C104.116 9.60715 103.925 9.64553 103.746 9.72008C103.567 9.79463 103.405 9.90387 103.269 10.0415C102.99 10.41 102.853 10.8663 102.883 11.3272H102.909Z" fill="#28438D"/>
<path d="M110.533 13.4036H109.967L108.456 11.3915L108.026 11.7772V13.4036H107.543V9.2572H108.026V11.3143L109.903 9.2572H110.468L108.778 11.0572L110.533 13.4036Z" fill="#28438D"/>
<path d="M115.252 9.64287C115.05 9.63383 114.849 9.67015 114.663 9.74914C114.477 9.82813 114.312 9.94778 114.178 10.0993C113.897 10.4495 113.755 10.8914 113.78 11.34C113.745 11.8005 113.88 12.2579 114.159 12.6257C114.295 12.7759 114.464 12.8937 114.652 12.9704C114.84 13.0472 115.043 13.081 115.245 13.0693C115.583 13.0439 115.916 12.9726 116.235 12.8572V13.275C115.894 13.3914 115.535 13.4459 115.175 13.4357C114.913 13.4526 114.65 13.4119 114.406 13.3164C114.162 13.2208 113.941 13.0729 113.76 12.8829C113.406 12.4372 113.23 11.876 113.265 11.3079C113.255 10.9194 113.337 10.5341 113.503 10.1829C113.655 9.87213 113.897 9.61445 114.197 9.44358C114.521 9.26258 114.887 9.17157 115.258 9.18001C115.651 9.1693 116.04 9.25076 116.396 9.41787L116.197 9.8293C115.899 9.69827 115.577 9.63461 115.252 9.64287Z" fill="#28438D"/>
<path d="M121.172 11.3271C121.206 11.8932 121.024 12.4511 120.664 12.8892C120.488 13.0811 120.272 13.2314 120.031 13.3292C119.789 13.4271 119.529 13.47 119.269 13.4549C119.007 13.4706 118.744 13.4286 118.5 13.332C118.256 13.2354 118.036 13.0864 117.855 12.8957C117.502 12.4494 117.326 11.8887 117.36 11.3207C117.324 10.7544 117.501 10.1952 117.855 9.75208C118.037 9.56114 118.258 9.41217 118.504 9.31558C118.749 9.21898 119.012 9.17708 119.276 9.1928C119.536 9.17862 119.795 9.22197 120.036 9.31976C120.278 9.41755 120.494 9.56736 120.671 9.75851C121.027 10.201 121.205 10.7601 121.172 11.3271ZM117.868 11.3271C117.834 11.7846 117.961 12.2395 118.228 12.6128C118.364 12.7512 118.526 12.8611 118.705 12.9362C118.883 13.0112 119.075 13.0499 119.269 13.0499C119.463 13.0499 119.655 13.0112 119.834 12.9362C120.013 12.8611 120.175 12.7512 120.311 12.6128C120.569 12.2363 120.692 11.7827 120.658 11.3271C120.692 10.8715 120.569 10.4179 120.311 10.0414C120.174 9.90376 120.012 9.79452 119.833 9.71997C119.655 9.64542 119.463 9.60704 119.269 9.60704C119.076 9.60704 118.884 9.64542 118.705 9.71997C118.526 9.79452 118.364 9.90376 118.228 10.0414C117.959 10.4134 117.831 10.8693 117.868 11.3271Z" fill="#28438D"/>
<path d="M125.653 9.2572V11.9379C125.664 12.1427 125.632 12.3476 125.559 12.5392C125.486 12.7308 125.373 12.9049 125.228 13.0501C124.905 13.335 124.482 13.4806 124.052 13.4551C123.842 13.4687 123.631 13.4399 123.432 13.3703C123.233 13.3007 123.051 13.1918 122.895 13.0501C122.754 12.8999 122.645 12.7228 122.575 12.5295C122.504 12.3362 122.473 12.1306 122.483 11.9251V9.2572H122.966V11.9636C122.956 12.1077 122.977 12.2522 123.025 12.3882C123.074 12.5241 123.15 12.6487 123.248 12.7543C123.362 12.8542 123.495 12.9305 123.638 12.9791C123.782 13.0276 123.933 13.0474 124.084 13.0372C124.23 13.0463 124.377 13.0259 124.515 12.9773C124.653 12.9287 124.78 12.8529 124.888 12.7543C124.989 12.6487 125.066 12.5234 125.116 12.3861C125.166 12.2489 125.187 12.1029 125.177 11.9572V9.2572H125.653Z" fill="#28438D"/>
<path d="M130.423 13.4036H129.87L127.607 9.92577C127.607 10.3308 127.652 10.7036 127.652 11.0443V13.4036H127.208V9.2572H127.748L129.992 12.7222C129.992 12.6708 129.992 12.5036 129.992 12.2272C129.992 11.9508 129.992 11.7515 129.992 11.6358V9.2572H130.442L130.423 13.4036Z" fill="#28438D"/>
<path d="M133.271 13.4036H132.789V9.68792H131.503V9.2572H134.608V9.68792H133.322L133.271 13.4036Z" fill="#28438D"/>
<path d="M136.697 11.3271L137.796 9.25712H138.349L136.96 11.8285V13.4357H136.478V11.8157L135.096 9.24426H135.623L136.697 11.3271Z" fill="#28438D"/>
<path d="M73.5813 19.5428H76.2106L79.4763 29.3143L80.2799 29.4621V30.42H75.6835V29.4621L76.7185 29.3143L76.2235 27.5657H72.7392L72.2442 29.3271L73.382 29.4621V30.42H69.5249V29.4621L70.367 29.3014L73.5813 19.5428ZM74.6613 22.0757L74.4428 21.06L74.2113 22.095L73.0285 26.4407H75.9149L74.6613 22.0757Z" fill="#28438D"/>
<path d="M83.1278 30.4521C82.6778 30.3621 82.2021 30.2464 81.7071 30.0986C81.479 30.0235 81.2444 29.9697 81.0063 29.9379L81.1413 27.2121H82.4978L82.8578 29.0829C83.0239 29.242 83.2272 29.3569 83.4492 29.4171C83.7823 29.5189 84.1296 29.5667 84.4778 29.5586C84.9563 29.5942 85.4314 29.4548 85.8149 29.1664C85.9635 29.03 86.0803 28.8625 86.157 28.6758C86.2336 28.4892 86.2683 28.288 86.2585 28.0864C86.2657 27.7832 86.1655 27.4872 85.9756 27.2507C85.7514 26.9921 85.4839 26.7746 85.1849 26.6079C84.7394 26.3514 84.2801 26.1196 83.8092 25.9136C83.0898 25.59 82.436 25.1367 81.8806 24.5764C81.6102 24.2932 81.4001 23.9579 81.2631 23.5911C81.1261 23.2242 81.065 22.8333 81.0835 22.4421C81.0777 21.9164 81.2251 21.4004 81.5078 20.9571C81.8213 20.479 82.2684 20.1034 82.7935 19.8771C83.4672 19.5814 84.1988 19.4408 84.9342 19.4657C85.3864 19.4597 85.8382 19.4941 86.2842 19.5686C86.6699 19.6393 87.0813 19.7293 87.5185 19.845C87.6934 19.9085 87.8743 19.9537 88.0585 19.98L87.9685 22.5514H86.6442L86.2778 20.7643C86.1508 20.644 85.9927 20.5616 85.8213 20.5264C85.563 20.4484 85.294 20.4115 85.0242 20.4171C84.5897 20.3852 84.1595 20.5209 83.8221 20.7964C83.6903 20.9218 83.5866 21.0738 83.5179 21.2422C83.4492 21.4107 83.417 21.5918 83.4235 21.7736C83.4185 22.1106 83.5375 22.4377 83.7578 22.6929C83.9888 22.9521 84.2628 23.1696 84.5678 23.3357C84.8828 23.5157 85.3649 23.7664 86.0206 24.0879C86.4859 24.311 86.9349 24.5666 87.3642 24.8529C87.7556 25.1178 88.0918 25.4562 88.3542 25.8493C88.6277 26.2767 88.7686 26.7755 88.7592 27.2829C88.7582 27.8209 88.6258 28.3505 88.3735 28.8257C88.0713 29.3642 87.6114 29.7972 87.0556 30.0664C86.2897 30.4293 85.4466 30.5992 84.5999 30.5614C84.1069 30.5695 83.6142 30.5329 83.1278 30.4521Z" fill="#28438D"/>
<path d="M92.1601 30.4522C91.7037 30.3622 91.2344 30.2465 90.7329 30.0986C90.5048 30.0235 90.2703 29.9697 90.0322 29.9379L90.1672 27.2122H91.5237L91.8901 29.0829C92.055 29.2436 92.2588 29.3588 92.4815 29.4172C92.8144 29.5197 93.1618 29.5675 93.5101 29.5586C93.9869 29.5975 94.4612 29.4577 94.8408 29.1665C94.9894 29.03 95.1062 28.8625 95.1828 28.6759C95.2595 28.4892 95.2942 28.288 95.2844 28.0865C95.2916 27.7832 95.1914 27.4872 95.0015 27.2507C94.7813 26.9907 94.5155 26.7728 94.2172 26.6079C93.7687 26.3529 93.3074 26.1212 92.8351 25.9136C92.1173 25.587 91.4641 25.1341 90.9065 24.5765C90.6385 24.2918 90.4304 23.9562 90.2945 23.5896C90.1587 23.2229 90.0979 22.8328 90.1158 22.4422C90.1077 21.9171 90.2529 21.401 90.5337 20.9572C90.8489 20.4805 91.2954 20.1054 91.8194 19.8772C92.4951 19.5807 93.229 19.4401 93.9665 19.4658C94.4166 19.4595 94.8662 19.4939 95.3101 19.5686C95.6958 19.6393 96.1072 19.7293 96.5444 19.845C96.7192 19.9085 96.9002 19.9538 97.0844 19.98L96.9944 22.5515H95.6701L95.3358 20.7579C95.2051 20.6393 95.0455 20.5572 94.8729 20.52C94.6167 20.4427 94.3499 20.4058 94.0822 20.4107C93.6477 20.3782 93.2172 20.514 92.8801 20.79C92.7471 20.9149 92.6423 21.0666 92.5724 21.235C92.5026 21.4035 92.4694 21.5849 92.4751 21.7672C92.4701 22.1042 92.5891 22.4313 92.8094 22.6865C93.0404 22.9457 93.3144 23.1632 93.6194 23.3293C93.9344 23.5093 94.4229 23.76 95.0722 24.0815C95.5388 24.3061 95.9898 24.5617 96.4222 24.8465C96.8131 25.1099 97.1475 25.4486 97.4058 25.8429C97.6816 26.2696 97.8247 26.7685 97.8172 27.2765C97.8139 27.815 97.6793 28.3446 97.4251 28.8193C97.1246 29.3591 96.6642 29.7926 96.1072 30.06C95.3434 30.4224 94.5025 30.5923 93.6579 30.555C93.1565 30.5671 92.6551 30.5327 92.1601 30.4522Z" fill="#28438D"/>
<path d="M99.8937 20.8093L98.7559 20.6036V19.5879H106.734L106.927 22.1593H105.776L105.262 20.6872L102.388 20.5715V24.3643L104.169 24.3193L104.432 23.1236H105.435V26.7879H104.432L104.182 25.5022L102.388 25.4636V29.43L105.602 29.2243L106.496 27.3407L107.73 27.6943L107.383 30.4329H98.7751V29.4622L99.8937 29.3143V20.8093Z" fill="#28438D"/>
<path d="M110.912 30.4521C110.462 30.3621 109.986 30.2464 109.491 30.0986C109.263 30.0235 109.029 29.9697 108.791 29.9379L108.926 27.2121H110.282L110.642 29.0829C110.809 29.2407 111.012 29.3554 111.233 29.4171C111.566 29.5189 111.914 29.5667 112.262 29.5586C112.741 29.5954 113.216 29.4559 113.599 29.1664C113.748 29.03 113.864 28.8625 113.941 28.6758C114.018 28.4892 114.052 28.288 114.043 28.0864C114.05 27.7832 113.95 27.4872 113.76 27.2507C113.536 26.9921 113.268 26.7746 112.969 26.6079C112.524 26.3514 112.064 26.1196 111.593 25.9136C110.874 25.59 110.22 25.1367 109.665 24.5764C109.396 24.2921 109.187 23.9567 109.05 23.5901C108.913 23.2235 108.851 22.8331 108.868 22.4421C108.862 21.9164 109.009 21.4004 109.292 20.9571C109.605 20.479 110.053 20.1034 110.578 19.8771C111.251 19.5814 111.983 19.4408 112.718 19.4657C113.171 19.4597 113.622 19.4941 114.068 19.5686C114.454 19.6393 114.866 19.7293 115.303 19.845C115.478 19.9085 115.659 19.9537 115.843 19.98L115.753 22.5514H114.428L114.094 20.7579C113.963 20.6392 113.804 20.5572 113.631 20.52C113.373 20.442 113.104 20.4051 112.834 20.4107C112.4 20.3788 111.969 20.5145 111.632 20.79C111.5 20.9154 111.396 21.0674 111.328 21.2358C111.259 21.4042 111.227 21.5853 111.233 21.7671C111.228 22.1042 111.347 22.4313 111.568 22.6864C111.799 22.9457 112.073 23.1631 112.378 23.3293C112.693 23.5093 113.175 23.76 113.831 24.0814C114.297 24.3061 114.748 24.5616 115.181 24.8464C115.568 25.1134 115.902 25.4515 116.164 25.8429C116.438 26.2703 116.578 26.7691 116.569 27.2764C116.568 27.8144 116.436 28.3441 116.183 28.8193C115.883 29.3591 115.422 29.7926 114.866 30.06C114.102 30.4223 113.261 30.5923 112.416 30.555C111.913 30.567 111.409 30.5326 110.912 30.4521Z" fill="#28438D"/>
<path d="M120.234 30.4521C119.784 30.3621 119.308 30.2464 118.813 30.0986C118.585 30.0235 118.35 29.9697 118.112 29.9379L118.241 27.2121H119.604L119.964 29.0829C120.13 29.242 120.333 29.3569 120.555 29.4171C120.888 29.5189 121.236 29.5667 121.584 29.5586C122.062 29.5942 122.537 29.4548 122.921 29.1664C123.069 29.03 123.186 28.8625 123.263 28.6758C123.34 28.4892 123.374 28.288 123.364 28.0864C123.372 27.7832 123.271 27.4872 123.082 27.2507C122.857 26.9921 122.59 26.7746 122.291 26.6079C121.845 26.3527 121.385 26.121 120.915 25.9136C120.196 25.59 119.542 25.1367 118.987 24.5764C118.716 24.2932 118.506 23.9579 118.369 23.5911C118.232 23.2242 118.171 22.8333 118.189 22.4421C118.184 21.9164 118.331 21.4004 118.614 20.9571C118.927 20.479 119.374 20.1034 119.899 19.8771C120.573 19.5814 121.305 19.4408 122.04 19.4657C122.492 19.4597 122.944 19.4941 123.39 19.5686C123.776 19.6393 124.187 19.7293 124.624 19.845C124.799 19.9085 124.98 19.9537 125.164 19.98L125.074 22.5514H123.75L123.409 20.7579C123.282 20.6376 123.124 20.5552 122.953 20.52C122.695 20.442 122.426 20.4051 122.156 20.4107C121.721 20.3788 121.291 20.5145 120.954 20.79C120.822 20.9154 120.718 21.0674 120.65 21.2358C120.581 21.4042 120.549 21.5853 120.555 21.7671C120.55 22.1042 120.669 22.4313 120.889 22.6864C121.12 22.9457 121.395 23.1631 121.699 23.3293C122.014 23.5093 122.497 23.76 123.152 24.0814C123.618 24.3046 124.067 24.5602 124.496 24.8464C124.892 25.1183 125.231 25.4656 125.492 25.8686C125.766 26.296 125.907 26.7948 125.897 27.3021C125.896 27.8402 125.764 28.3698 125.512 28.845C125.209 29.3835 124.749 29.8165 124.194 30.0857C123.428 30.4486 122.585 30.6185 121.738 30.5807C121.234 30.5844 120.73 30.5413 120.234 30.4521Z" fill="#28438D"/>
<path d="M127.929 29.1022C127.09 27.915 126.684 26.4766 126.778 25.0265C126.76 24.0104 126.98 23.0043 127.421 22.0886C127.802 21.2901 128.407 20.6199 129.163 20.16C129.956 19.6898 130.864 19.4515 131.786 19.4722C133.457 19.4722 134.689 19.9372 135.482 20.8672C136.345 22.0045 136.767 23.4156 136.671 24.84C136.687 25.8807 136.467 26.9113 136.029 27.855C135.643 28.686 135.027 29.3889 134.254 29.88C133.455 30.3706 132.531 30.6205 131.593 30.6C129.939 30.5872 128.717 30.0879 127.929 29.1022ZM130.063 21.5679C129.624 22.6589 129.428 23.8328 129.491 25.0072C129.422 26.1898 129.615 27.373 130.056 28.4722C130.182 28.8011 130.404 29.0848 130.693 29.2865C130.982 29.4881 131.324 29.5986 131.676 29.6036C132.038 29.5865 132.386 29.4599 132.674 29.2407C132.962 29.0214 133.177 28.7198 133.29 28.3758C133.727 27.2483 133.922 26.0414 133.862 24.8336C133.938 23.6812 133.749 22.5266 133.309 21.4586C133.172 21.145 132.944 20.8789 132.656 20.6937C132.368 20.5085 132.032 20.4123 131.689 20.4172C131.335 20.4259 130.99 20.5399 130.701 20.7449C130.411 20.9498 130.189 21.2363 130.063 21.5679Z" fill="#28438D"/>
<path d="M137.655 29.4622L138.78 29.3143V20.7965L137.706 20.5715V19.5879H139.956H140.561H141.062C141.589 19.5493 142.033 19.5301 142.405 19.5301C143.243 19.5031 144.079 19.6028 144.887 19.8258C145.424 19.9746 145.894 20.3037 146.218 20.7579C146.516 21.2627 146.661 21.8435 146.636 22.4293C146.639 23.084 146.456 23.7261 146.108 24.2808C145.763 24.8568 145.211 25.2798 144.565 25.4636C145.028 25.6369 145.425 25.949 145.703 26.3572C146.063 26.9089 146.382 27.487 146.655 28.0865C146.848 28.4979 147.008 28.8001 147.124 28.9993C147.159 29.0777 147.21 29.1483 147.273 29.2068C147.336 29.2653 147.41 29.3106 147.491 29.3401L147.908 29.4751V30.4329H145.138C144.996 30.4329 144.842 30.2786 144.688 29.9701C144.533 29.6615 144.334 29.1729 144.09 28.5108C143.861 27.8717 143.6 27.2451 143.306 26.6336C143.175 26.2832 142.918 25.9943 142.585 25.8236H141.3V29.3143L142.585 29.4622V30.4201H137.668L137.655 29.4622ZM143.576 24.2743C143.896 23.736 144.044 23.1123 144 22.4872C144.047 21.9427 143.901 21.3989 143.588 20.9508C143.406 20.7724 143.186 20.6362 142.945 20.5518C142.704 20.4674 142.447 20.4368 142.193 20.4622C141.885 20.4569 141.578 20.4805 141.274 20.5329V24.8208C141.486 24.8595 141.702 24.8745 141.917 24.8658H142.412C142.64 24.8724 142.866 24.8217 143.069 24.7184C143.272 24.6151 143.447 24.4624 143.576 24.2743Z" fill="#28438D"/>
<path d="M149.4 24.2807V24.03C149.567 23.8366 149.706 23.6201 149.811 23.3871C149.987 23.0227 150.124 22.6415 150.223 22.2492C150.332 21.8293 150.388 21.3974 150.39 20.9635C150.395 20.8345 150.362 20.7068 150.293 20.5971C150.204 20.4679 150.105 20.3454 149.998 20.2307C149.84 20.0879 149.704 19.9234 149.593 19.7421C149.493 19.5431 149.446 19.3216 149.458 19.0992C149.454 18.9518 149.481 18.8053 149.538 18.6691C149.594 18.5329 149.679 18.4101 149.786 18.3085C149.892 18.2035 150.019 18.1209 150.158 18.0657C150.297 18.0105 150.446 17.9837 150.596 17.9871C150.914 17.987 151.222 18.101 151.463 18.3085C151.732 18.5398 151.939 18.8334 152.068 19.1635C152.217 19.5308 152.291 19.9242 152.286 20.3207C152.287 20.9809 152.162 21.6352 151.92 22.2492C151.702 22.8189 151.398 23.3521 151.02 23.8307C150.737 24.2007 150.386 24.5128 149.985 24.75L149.4 24.2807Z" fill="#28438D"/>
<path d="M156.407 30.4522C155.957 30.3622 155.481 30.2464 154.986 30.0986C154.758 30.0242 154.524 29.9704 154.286 29.9379L154.414 27.2122H155.771L156.137 29.0829C156.303 29.242 156.507 29.3569 156.729 29.4172C157.061 29.5197 157.409 29.5675 157.757 29.5586C158.234 29.5975 158.708 29.4577 159.088 29.1664C159.239 29.0314 159.357 28.8643 159.435 28.6775C159.513 28.4906 159.548 28.2886 159.538 28.0864C159.543 27.7824 159.441 27.4863 159.249 27.2507C159.028 26.9906 158.762 26.7728 158.464 26.6079C158.016 26.3516 157.555 26.1199 157.082 25.9136C156.363 25.5891 155.71 25.1359 155.154 24.5764C154.883 24.2932 154.673 23.958 154.536 23.5911C154.399 23.2242 154.338 22.8333 154.356 22.4422C154.351 21.9165 154.498 21.4004 154.781 20.9572C155.093 20.4782 155.541 20.1025 156.066 19.8772C156.742 19.5813 157.476 19.4407 158.214 19.4657C158.666 19.4597 159.117 19.4942 159.564 19.5686C159.943 19.6393 160.354 19.7293 160.791 19.845C160.967 19.907 161.147 19.9522 161.331 19.98L161.248 22.5514H159.917L159.564 20.7643C159.436 20.6454 159.278 20.5632 159.107 20.5264C158.849 20.4484 158.58 20.4115 158.31 20.4172C157.875 20.3846 157.445 20.5204 157.108 20.7964C156.975 20.9213 156.87 21.073 156.8 21.2414C156.73 21.4099 156.697 21.5913 156.703 21.7736C156.7 22.1114 156.821 22.4384 157.044 22.6929C157.271 22.9535 157.543 23.1712 157.847 23.3357C158.169 23.5157 158.651 23.7664 159.3 24.0879C159.766 24.3125 160.217 24.5681 160.65 24.8529C161.041 25.1163 161.375 25.455 161.634 25.8493C161.913 26.2742 162.057 26.7743 162.045 27.2829C162.044 27.8209 161.911 28.3505 161.659 28.8257C161.356 29.3657 160.894 29.799 160.335 30.0664C159.572 30.4303 158.73 30.6003 157.886 30.5614C157.39 30.5702 156.896 30.5336 156.407 30.4522Z" fill="#28438D"/>
<path d="M89.0294 43.5215C88.18 42.3385 87.7624 40.8997 87.8466 39.4458C87.8291 38.4277 88.0492 37.4196 88.4894 36.5015C88.8713 35.7036 89.4765 35.0336 90.2316 34.5729C91.023 34.0998 91.9326 33.8612 92.8544 33.885C94.5259 33.885 95.758 34.3501 96.5509 35.2801C97.398 36.4098 97.813 37.8053 97.7209 39.2143C97.7371 40.2529 97.5173 41.2817 97.078 42.2229C96.6946 43.0568 96.0785 43.7623 95.3037 44.2543C94.5124 44.7503 93.5954 45.0091 92.6616 45.0001C91.0287 45.0001 89.8137 44.505 89.0294 43.5215ZM91.1637 36.0001C90.724 37.0909 90.5287 38.2649 90.5916 39.4393C90.5231 40.6219 90.7162 41.805 91.1573 42.9043C91.2816 43.237 91.5071 43.5222 91.802 43.7199C92.0969 43.9177 92.4464 44.0179 92.8013 44.0066C93.1562 43.9952 93.4986 43.8728 93.7803 43.6566C94.062 43.4405 94.2688 43.1414 94.3716 42.8015C94.8094 41.6764 95.0044 40.4715 94.9437 39.2658C95.0196 38.1133 94.8305 36.9588 94.3908 35.8908C94.2531 35.5771 94.026 35.3111 93.7378 35.1258C93.4497 34.9406 93.1134 34.8444 92.7709 34.8493C92.419 34.8601 92.0784 34.9753 91.7922 35.1802C91.506 35.3851 91.2873 35.6705 91.1637 36.0001Z" fill="#28438D"/>
<path d="M99.8805 35.2286L98.7104 35.0229V34.0007H106.913L107.068 36.7329H105.782L105.203 35.1386L102.349 34.965V39.0086L104.278 38.9636L104.573 37.6779H105.589V41.5736H104.586L104.278 40.185L102.349 40.1272V43.7143L104.58 43.875V44.8393H98.794V43.875L99.8869 43.7143L99.8805 35.2286Z" fill="#28438D"/>
<path d="M109.71 35.2286L108.546 35.0229V34.0007H116.743L116.904 36.7329H115.618L115.039 35.1386L112.236 34.965V39.0086L114.165 38.9636L114.461 37.6779H115.483V41.5736H114.474L114.165 40.2172L112.236 40.1593V43.7143L114.467 43.875V44.8393H108.649V43.875L109.742 43.7143L109.71 35.2286Z" fill="#28438D"/>
<path d="M119.706 35.2286L118.511 35.0229V34.0007H123.429V35.0229L122.201 35.2286V43.7143L123.429 43.875V44.82H118.53V43.8557L119.706 43.7143V35.2286Z" fill="#28438D"/>
<path d="M125.839 43.5343C124.92 42.4045 124.461 40.9698 124.554 39.5164C124.531 38.4747 124.772 37.4442 125.254 36.5207C125.699 35.7058 126.368 35.0363 127.183 34.5921C128.032 34.1281 128.987 33.8933 129.954 33.9107C130.347 33.912 130.739 33.9335 131.13 33.975L132.506 34.1614C132.924 34.2257 133.207 34.2643 133.367 34.2771L133.187 37.53H131.632L131.13 35.2993C130.749 35.0093 130.268 34.8822 129.793 34.9457C129.422 34.9465 129.059 35.0519 128.745 35.2498C128.431 35.4476 128.179 35.7299 128.019 36.0643C127.53 37.0825 127.308 38.2088 127.376 39.3364C127.329 40.4937 127.548 41.6464 128.019 42.705C128.161 43.0801 128.413 43.4035 128.742 43.6329C129.072 43.8623 129.462 43.987 129.864 43.9907C130.173 44.0052 130.482 43.9639 130.777 43.8685C130.976 43.7969 131.158 43.6829 131.31 43.5343L131.953 41.9785L133.38 42.1071L133.117 44.4857C132.764 44.5179 132.417 44.5913 132.082 44.7043C131.689 44.8071 131.323 44.8907 130.982 44.9485C130.557 45.0168 130.127 45.0469 129.697 45.0385C128.983 45.0846 128.268 44.9738 127.601 44.7139C126.935 44.454 126.333 44.0514 125.839 43.5343Z" fill="#28438D"/>
<path d="M135.861 35.2286L134.724 35.0229V34.0007H142.702L142.894 36.5722H141.744L141.229 35.1L138.349 34.965V38.7579L140.13 38.7129L140.394 37.5172H141.397V41.1814H140.394L140.143 39.8957L138.349 39.8572V43.8236L141.564 43.6243L142.457 41.7407L143.691 42.0943L143.344 44.8329H134.736V43.8686L135.861 43.7272V35.2286Z" fill="#28438D"/>
</g>
<defs>
<clipPath id="clip0_990_7478">
<rect width="161.267" height="45" fill="white" transform="translate(0.777832)"/>
</clipPath>
</defs>
</svg>
