<svg width="97" height="65" viewBox="0 0 97 65" fill="none" xmlns="http://www.w3.org/2000/svg">
<path d="M17.9782 43.6286V62.3937H20.6809C25.3336 62.3937 28.7893 60.1349 28.7893 52.3355C28.7893 46.0418 25.9321 43.6286 21.1443 43.6286H17.9782ZM12.8815 41.6981H24.2911C31.4921 42.007 34.3493 46.9492 34.3493 52.3548C34.3493 59.8647 29.0982 64.3629 22.2061 64.3629H12.9008V41.6981H12.8815ZM57.9601 60.6755C56.1453 61.8531 53.5777 63.0115 50.8749 63.0115C46.2222 62.5674 43.6546 58.6484 43.6546 53.2428C43.6546 48.2813 45.7589 43.0302 51.3189 43.0302C53.4618 43.0302 56.7438 44.1885 57.9601 45.3468V42.7792C56.2998 41.7367 53.5777 41.0996 51.3189 41.0996C44.0986 41.0996 38.0946 44.9993 38.0946 53.7255C38.0946 60.6369 43.5002 64.9999 50.566 64.9999C52.8248 64.9999 55.1607 64.498 57.9407 63.1659L57.9601 60.6755ZM82.9415 41.2927V53.5517C82.7871 57.297 82.7871 60.7527 79.3314 63.1466C77.5359 64.498 75.0262 64.942 72.7674 64.942C68.8677 64.942 64.0992 63.7451 62.9023 59.4013C62.5934 58.0499 62.4583 56.5441 62.4583 55.1927V45.0573L67.4005 41.3313V51.1578C67.4005 52.9532 67.4005 55.656 67.7094 57.4515C68.0183 59.1117 68.1534 60.1542 69.3504 61.1967C70.3929 62.2392 72.0145 62.7026 73.5204 62.7026C76.5127 62.7026 78.4433 61.5056 79.6402 58.6484C80.2387 57.1426 80.2387 53.3973 80.2387 51.7563V43.0109L82.9415 41.2927Z" fill="#00275D"/>
<path d="M30.2947 16.9294C19.0588 22.1226 8.63377 28.7444 0.75708 35.3662L0.795691 35.4241L0.930831 35.5786C8.53724 29.3815 18.6341 23.4354 29.2135 18.6476C55.8553 6.42712 80.8174 3.56989 84.8716 12.2574C86.9373 16.9487 82.8252 24.3041 73.4234 32.3352L73.655 32.6248C82.497 25.4624 87.3427 18.8985 87.3427 13.8405C87.3427 12.8173 87.1496 11.852 86.7442 10.9639C82.497 1.92891 57.1874 4.59309 30.2947 16.9294Z" fill="#FFB031"/>
<path d="M33.2676 18.4156C27.8813 20.8095 23.0742 23.7247 18.5953 26.4081L18.7498 26.6977C22.6688 24.5548 25.9894 23.0297 29.0397 21.6203C50.3144 11.871 70.1992 9.61225 73.4039 16.5623C75.7592 21.5431 68.7706 30.4816 55.469 39.2078L55.6621 39.5166C70.0834 31.138 78.906 22.1416 78.906 16.0024C78.906 15.153 78.7323 14.3614 78.4041 13.6471C77.7284 12.1606 76.3577 11.0409 74.3306 10.288C66.4346 7.39211 49.9476 10.6548 33.2676 18.4156Z" fill="#FFB031"/>
<path d="M47.9209 5.86702L48.0367 6.25313C55.6624 3.97507 61.9753 2.54646 67.3423 1.73562C81.1265 -0.349383 89.7175 1.29159 92.15 6.4848C93.289 8.74356 93.3276 11.3305 92.2851 14.4387C89.6403 22.2189 80.4122 32.084 66.9755 41.4859C65.6434 42.5284 52.226 51.4282 46.2992 54.3627L46.4536 54.7681C51.8206 52.2198 57.4964 49.1695 63.2881 45.6945L68.1918 42.567C85.895 30.9836 96.2428 19.2072 96.2428 11.1568C96.2428 9.78606 95.9532 8.5312 95.3354 7.41147C90.3932 -1.93244 73.134 -2.43439 47.9209 5.86702Z" fill="#FFB031"/>
</svg>
